{
    "jsonrpc": "2.0",
    "id": null,
    "result": {
        "data": [
            {
                "id": 1,
                "product_code": "LAP/ELE/002",
                "product_name": "Laptop I3",
                "asset_location_id": [
                    1,
                    "Ruangan Lebak"
                ],
                "location_name": "Ruangan Lebak",
                "user_name": "Rafi",
                "image_url": "http://test.com",
                "history_ids": [
                    {
                        "id": 1,
                        "location_name": "Ruangan Lebak",
                        "user_id": [
                            2,
                            "ADMINISTRATOR"
                        ],
                        "scan_date": "2024-07-03 05:20:30"
                    }
                ],
                "user_history_ids": [
                    {
                        "id": 1,
                        "name": "Monica",
                        "user_id": [
                            2,
                            "ADMINISTRATOR"
                        ],
                        "date": "2024-07-11 07:48:53"
                    }
                ],
                "notes_history_ids": [
                    {
                        "id": 1,
                        "name": "Monica",
                        "user_id": [
                            2,
                            "ADMINISTRATOR"
                        ],
                        "date": "2024-07-11 07:48:53"
                    }
                ]
            }
        ]
    }
}